{
  "genesis_time": "2023-09-13T09:54:04.181979794Z",
  "chain_id": "test-chain-o6SzgX",
  "initial_height": "0",
  "consensus_params": {
    "block": {
      "max_bytes": "22020096",
      "max_gas": "-1",
      "time_iota_ms": "1000"
    },
    "evidence": {
      "max_age_num_blocks": "100000",
      "max_age_duration": "172800000000000",
      "max_bytes": "1048576"
    },
    "validator": {
      "pub_key_types": [
        "ed25519"
      ]
    },
    "version": {}
  },
  "validators": [
    {
      "address": "FB24D73EB3BBDF14161D85C70705D011B8DD2EEF",
      "pub_key": {
        "type": "tendermint/PubKeyEd25519",
        "value": "0BnxWtRkixLTZKzO5y7Hg7bkwKqui17gIo5T56GC/ag="
      },
      "power": "10",
      "name": ""
    }
  ],
  "app_hash": ""
}