{
  "address": "FB24D73EB3BBDF14161D85C70705D011B8DD2EEF",
  "pub_key": {
    "type": "tendermint/PubKeyEd25519",
    "value": "0BnxWtRkixLTZKzO5y7Hg7bkwKqui17gIo5T56GC/ag="
  },
  "priv_key": {
    "type": "tendermint/PrivKeyEd25519",
    "value": "GPBvDy/pvUj46bD0BQfT4ZvSOL7oMiawMp8QGju5wgTQGfFa1GSLEtNkrM7nLseDtuTAqq6LXuAijlPnoYL9qA=="
  }
}